This is BibTeX, Version 0.99cThe top-level auxiliary file: mon.aux
I found no \citation commands---while reading file mon.aux
I found no \bibdata command---while reading file mon.aux
I found no \bibstyle command---while reading file mon.aux
(There were 3 error messages)
